%YAML 1.1
%TAG !u! tag:unity3d.com,2011:
--- !u!1 &5305163550186824709
GameObject:
  m_ObjectHideFlags: 0
  m_CorrespondingSourceObject: {fileID: 0}
  m_PrefabInstance: {fileID: 0}
  m_PrefabAsset: {fileID: 0}
  serializedVersion: 6
  m_Component:
  - component: {fileID: 5305163550186824707}
  - component: {fileID: 5305163550186824706}
  - component: {fileID: 5305163550186824704}
  m_Layer: 0
  m_Name: GameObject
  m_TagString: Untagged
  m_Icon: {fileID: 0}
  m_NavMeshLayer: 0
  m_StaticEditorFlags: 0
  m_IsActive: 1
--- !u!4 &5305163550186824707
Transform:
  m_ObjectHideFlags: 0
  m_CorrespondingSourceObject: {fileID: 0}
  m_PrefabInstance: {fileID: 0}
  m_PrefabAsset: {fileID: 0}
  m_GameObject: {fileID: 5305163550186824709}
  m_LocalRotation: {x: -0, y: -0, z: -0, w: 1}
  m_LocalPosition: {x: 273.48727, y: 156.26895, z: -0.58415294}
  m_LocalScale: {x: 1, y: 1, z: 1}
  m_Children: []
  m_Father: {fileID: 0}
  m_RootOrder: 0
  m_LocalEulerAnglesHint: {x: 0, y: 0, z: 0}
--- !u!114 &5305163550186824706
MonoBehaviour:
  m_ObjectHideFlags: 0
  m_CorrespondingSourceObject: {fileID: 0}
  m_PrefabInstance: {fileID: 0}
  m_PrefabAsset: {fileID: 0}
  m_GameObject: {fileID: 5305163550186824709}
  m_Enabled: 1
  m_EditorHideFlags: 0
  m_Script: {fileID: 11500000, guid: 990972a5bee64b241832beb1d28266c9, type: 3}
  m_Name: 
  m_EditorClassIdentifier: 
  spritesObstaclesDesert:
  - {fileID: 21300000, guid: 41f5371d2d2f3d2428925bba5a769161, type: 3}
  - {fileID: 21300000, guid: 0453b390da9fa33429aaf9cd6691825f, type: 3}
  - {fileID: 21300000, guid: a97e7232d2f6f0b4db27230fe9377989, type: 3}
  spritesObstaclesForest:
  - {fileID: 21300000, guid: f4f12992f3b340740a79a8593d8de55d, type: 3}
  - {fileID: 21300000, guid: 4acce7ed66035f2408d3f664835f5b9c, type: 3}
  - {fileID: 21300000, guid: 6550e6bb29d01164db84d391920baca2, type: 3}
  spritesObstaclesCity:
  - {fileID: 21300000, guid: 6360a1342193fb94391ad2f7baa4a9df, type: 3}
  - {fileID: 21300000, guid: a2792afc15feb0d4cad7e19dddb1376b, type: 3}
  - {fileID: 21300000, guid: 30cb1ed27e4ad2647a90d4960649b45e, type: 3}
  spriteBonus:
  - {fileID: 21300000, guid: 9bbcdf1e2de891c4ba7dcde9a51c3094, type: 3}
  - {fileID: 21300000, guid: bc278bce3ce2dd042ac45b56963ec696, type: 3}
  scoreBonusVie: 10
  scoreBonusPoint: 100
  index: 0
  objet: {fileID: 2995064462558492431, guid: 17a28ce4ef6ea5a48961ee54335df7d1, type: 3}
--- !u!114 &5305163550186824704
MonoBehaviour:
  m_ObjectHideFlags: 0
  m_CorrespondingSourceObject: {fileID: 0}
  m_PrefabInstance: {fileID: 0}
  m_PrefabAsset: {fileID: 0}
  m_GameObject: {fileID: 5305163550186824709}
  m_Enabled: 1
  m_EditorHideFlags: 0
  m_Script: {fileID: 11500000, guid: fe477e9f7f44a1441a6e3ee886ef0ca9, type: 3}
  m_Name: 
  m_EditorClassIdentifier: 
  templateQuestion: {fileID: 7645435108489608765, guid: 6ef3fce4c3d2ded458b3d6388b92d09b,
    type: 3}
  templateReponse: {fileID: 8837193812079718668, guid: 53da5f60a44b8fc48ac319ddc06d03a5,
    type: 3}
  correctAnswers:
  - 1980
  - Steve Harris
  - 16
  - Eddie
  - 5
  questions:
  - "Quand a \xE9t\xE9 form\xE9 le groupe ?"
  - "Qui l'a fond\xE9 ?"
  - "Combien d'albums, hors albums live et compilation, le groupe a-t-il sorti (jusqu'\xE0
    2015) ?"
  - 'Comment s''appelle la mascotte du groupe ? '
  - "Combien le groupe a-t-il connu de chanteurs diff\xE9rents ?"
  textesReponses1:
  - 1980
  - 1978
  textesReponses2:
  - Bruce Dickinson
  - Adrian Smith
  textesReponses3:
  - 12
  - 23
  textesReponses4:
  - Johnny
  - Bobby
  textesReponses5:
  - 3
  - 4
  index: 2
