%YAML 1.1
%TAG !u! tag:unity3d.com,2011:
--- !u!1045 &1
EditorBuildSettings:
  m_ObjectHideFlags: 0
  serializedVersion: 2
  m_Scenes:
  - enabled: 1
    path: Assets/Antoine/Prefab/Scene/prefabScene.unity
    guid: 1569dc77f554b7d4caae65ef35d003e3
  m_configObjects: {}
